148446 -1
148447 -1
148448 -1
148449 1.0000000000001756
148450 1.000000000000274
148451 -1
148452 0.9999999999987665
148453 1.0000000000493683
148454 -1
148455 -1
148456 0.9999999990195543
148457 0.9996416475401437
148458 0.9999999990095035
148459 0.4999999999996055
148460 0.49999999999961703
148461 -1
148462 -1
148463 -1
148464 -1
148465 0.99585951611099
148466 -1
148467 -1
148468 0.05176372069899822
148469 0.9999892907589505
148470 0.4958671265011593
148471 0.9958659054639942
148472 0.9980356378840771
148473 -1
148474 -1
148475 0.891996245231256
148476 0.997478096930007
148477 0.9802282077085676
148478 0.8919993945145734
148479 0.8893660580869249
148480 0.891571029994277
148481 -1
148482 0.9308621145748908
148483 0.24143311049225338
148484 -1
148485 0.7469307837974396
148486 0.9698093901541553
148487 0.9423410280539457
148488 0.7391057154058881
148489 0.9646841354145756
148490 0.7458358185716472
148491 0.7221179425404167
148492 -1
148493 0.293561704519053
148494 0.29356532959325077
148495 -1
148496 -1
148497 0.6421891878466797
148498 0.7192199444487181
148499 -1
148500 0.8449185105339312
148501 0.7108807071425918
148502 0.630954266015054
148503 -1
148504 0.4694933696704816
148505 0.6998169408755689
148506 0.5103061062366177
148507 0.47932135470944826
148508 -1
148509 0.39223478262068134
148510 -1
148511 0.49090602473597794
148512 -1
148513 0.5996480420579886
148514 -1
148515 0.5451036598111425
148516 0.4951844985647307
148517 0.45780677882571397
148518 0.365576661013596
148519 0.4752402863607065
148520 0.3948464724579196
148522 0.32535267594409223
148523 0.37351829495189093
148524 0.4022379053581808
148525 0.4554547142128244
148526 0.4292233033062862
148527 0.40899775011860035
148528 0.40546429431860015
148529 -1
148530 0.39785075492255184
148531 0.37542417650007975
148532 0.3735779200227494
148533 0.21558514074946303
148534 -1
148535 0.3461764944831608
148536 0.27273691500164626
148537 -1
148538 0.2876692764287123
148539 -1
148540 -1
148541 0.3390996005778914
148542 0.34349368864362906
148543 0.297072040053918
148544 0.40325726857332755
148545 0.3391021727528938
148546 -1
148547 0.2997658041593571
148548 0.31482407313301075
148549 0.22242713140741416
148550 0.21913864251226522
148551 -1
148552 0.2261978074906061
148553 0.1738215462960053
148554 -1
148555 0.27142502479930297
148556 0.2826480869741146
148557 0.2663879002604871
148558 -1
148559 0.27991123050279704
148560 0.26875000870280746
148561 0.2410713566279804
148562 0.300758935880755
148563 0.30374902442576646
148564 0.2957602939650056
148565 -1
148566 -1
148567 0.22978332244993965
148568 0.206117423433269
148569 -1
148570 0.23191989074783853
148571 -1
148572 0.24330957588432925
148573 0.2288771264270532
148574 0.2557632942435221
148575 0.26169260442094255
148576 0.2670365219543316
148577 0.23371042595367825
148578 0.24475784469755735
148579 -1
148580 0.2502818964110477
148581 0.27096168854574953
148582 0.22463533114491846
148583 -1
148584 0.17351357907636708
148585 -1
148586 -1
148587 -1
148588 -1
174418 0.2203387418006199
174419 0.21438813922815986
174420 0.22987461483292568
174421 0.21683612807575134
174422 0.16691101686031995
174423 -1
174424 0.1773445142328478
174425 0.1939966870629813
174426 0.20758433198155973
174427 0.21372495338662165
174428 0.18860325739010858
174429 -1
174430 0.2076103597131565
174431 -1
174432 0.15411815395832043
174433 -1
174434 0.15372647155820193
174435 -1
174436 0.15370608460713742
174437 -1
174438 -1
174439 0.2034329260614302
174440 0.19015934201169257
174441 0.20619992688815347
174442 -1
174443 -1
174444 -1
174445 -1
174446 -1
174447 0.16873348989211964
174448 0.19756875178455702
174449 -1
174450 -1
174451 -1
174452 0.13100188457929177
174453 -1
174454 -1
174455 0.14672406365860902
174456 0.1600331632455553
174457 0.1847572215874307
174458 0.19782504989997127
174459 -1
174460 0.19618356832969647
174461 -1
174462 0.16665720565579556
174463 -1
174464 -1
174465 -1
174466 -1
174467 0.20282830365891152
174468 -1
174469 0.16934090948502617
174470 0.16185872938709428
174471 -1
174472 -1
174473 0.16934271058812492
174474 -1
174475 -1
174476 0.16316567079019945
174477 -1